# Sample proofreading rules for English

# comments started by hash marks

# base syntax of the rules:
#
# pattern -> suggestion # warning message

# duplicates

سلام سلام -> سلام # كلمة مكررة 

بيت بيت -> بيت # أتقصد:

لم يخشى -> لم يخش # أتقصد:

لم ينهى -> لم ينه # أتقصد:

لم يرى -> لم ير # أتقصد:

من عشرون-> من عشرين # أتقصد: 

for for -> for # Did you mean:


# عدد مجرور

(على|في|من|إلى|عن) (عشر|ثلاث|أربع|خمس|ست|سبع|ثمان|تسع)ون ->"\1 \2ين" #الكلمة الثانية مجرورة

(على|في|من|إلى|عن) (\w+)ون ->"\1 \2ين" # إذا كانت الكلمة جمعا مذكرا سالما ينبغي أن تجرّ بالياء.

(على|في|من|إلى|عن) (\w+)ان ->"\1 \2ين" #إذا كانت الكلمة مثنى،تجرّ بالياء.

# أخطاء شائعة 

وبالتالي -> ثَمّ\nلذا\nوعلى هذا\nوبذلك\nإذن\nأيْ\nثَمَّ يتّضح\nنجد\nنرى أنَّ  #تعبير ركيك

الآنف الذكر ->المذكور آنفًا\n المتقدم ذكره #لأن آنفًا جاء في كلام العرب ظرف زمان، ولم يشتق من فعل (أَنِفَ) الذي يعني استنكف وتَنَزَّه (واسم الفاعل منه آنِف)

من خلال -> ب\nفي\nمن طريق\nبواسطة\n أثناء\n باستعراض\nانطلاقًا من\n باستعمال\nبممارسة\nبفضل\nبسبب\nنتيجة لـِ\n بالاستفادة من\nوذلك أن\n بإجراء\nبالرجوع إلى #اختر ما يناسب المقام مما يلي

بشكل عام ->بوجه عام\nعمومًا #الأصوب أن توضع محل (بشكل) إحدى الكلمات الآتية: بطريقة، بأسلوب، بصفة، بصيغة، بوجه، بدرجة، بكيفية، الخ

بشكل قوي ->بقوّة#الأصوب أن توضع محل (بشكل) إحدى الكلمات الآتية: بطريقة، بأسلوب، بصفة، بصيغة، بوجه، بدرجة، بكيفية، الخ

بالشكل المناسب -> على الوجه المناسب#الأصوب أن توضع محل (بشكل) إحدى الكلمات الآتية: بطريقة، بأسلوب، بصفة، بصيغة، بوجه، بدرجة، بكيفية، الخ

بشكل فعال->بفعالية#الأصوب أن توضع محل (بشكل) إحدى الكلمات الآتية: بطريقة، بأسلوب، بصفة، بصيغة، بوجه، بدرجة، بكيفية، الخ

مسبقا->مقدّمًا\nسلفًا \nقبلا#أتقصد

بمثابة->بمنزلة\nتقوم مقام\n""#خطأ شائع:معاني المثابة: البيت والملجأ والجزاء.

أمر هام-> أمر مهم# خطأ شائع:

(و|وب|ف|فب|فك|وك)الأمر الهام-> "\1الأمر المهم"# خطأ شائع:

(و|وب|ف|فب|فك|وك)الطقوس الدينية->"\1الشعائر الدينية"#خطأ شائع: فلا وجود لطقوس في اللغة العربية

تفرقت الآراء->افترقت الآراء#خطأ شائع:

بحسب->تَبَعاً لـِ\nطِبْقاً لـِ\nوَفْقاً لـِ\nبمقتضى\nبمُوْجب\nبناءً على\n استناداً إلى\n عملاً بـ\n انطلاقاً من#حَسَبُ الشيءِ: قَدْرُه وعددُه، فيقال على الصواب:حَسَبَ ما ذُكر. وليكن عملك بحَسَبِ ذلك: أي على وفاقه وعدده.

لصالح->لمصلحة#خطأ شائع:

لصالح(ك|كما|ه|ها|هما|هم|نا|ي)->"لمصلحت\1"#خطأ شائع:

عبارة عن->""#خطأ شائع: حشو لا ضرورة له(حشو لا ضرورة له)، يتضح فساد المعنى في هذه النماذج إذا عُوِّض عن (عبارة عن) بـ (تعبير عن)... هذا الكلام عبارة عن كذا ≈ تعبير عن كذا ≈ معناه كذا ≈ ذو دَلالة على كذا.

علاوة على ذلك->إضافةً إلى ذلك\nزيادةً على ذلك\nفضلاً على ذلك#خطأ شائع: لأن العِلاوة: أعلى الرأس، أو ما يُحمل على البعير وغيره. وهي ليست مصدرًا

تحسبا من كل طارئ->تحسبا لكل طارئ# خطأ شائع: لأن معنى تحسّباً هو توقعًا واستعدادًا له، وليس استعدادًا منه

إنشاء الله-> إن شاء الله # خطأ شائع:لأن "إنشاء" تعني التركيب والتعمير، في حين "إن شاء" تعني إن أراد الله، وشتان بين المعنيين 

لأول مرة-> أول مرة#خطأ شائع

بين آونة وأخرى->بين أوان وآخر#خطأ شائع: لأن الآونة جمع أوان، مثل أزمنة وزمان.

تنازل عن العرش->اعتزل العرش#خطأ شائع

(تم|يتم|تتم)->""#إذا كان بعدها مصدر ما يستحسن الاستغناء عنها، مثل تم بناء المدرسة، والأصح: بينت المدرسة.

عن كثب->من كثب#خطأ شائع:لأن الكثب هو القرب

ثبت بأنه-> ثبت أنه# خطأ شائع: لأن ثبت فعل لازم يتعدى بالهمزة والتضعيف

غسيل الأموال->تبييض الأموال#لأنها ترجمة مبتذلة لـ (Money laundering)

# غلط في التأنيث

هذه (الرأس|رأس|مستشفى|المستشفى) -> "هذا \1" # الاسم مذكر

هذا (الأرنب|أرنب|بطن|البطن) -> "هذه \1" # الاسم مؤنث

# لا الناهية تجزم الفعل الناقص بحذف آخره
# وعادة ما يكون مع المخاطب المفرد لا تنسى-> لا تنس

لا ت(\w\w)ى -> "لا ت\1"   # لا الناهية تجزم الفعل الناقص بحذف آخره

# لم الجازمة تجزم الفعل الناقص بحذف آخره
# وعادة ما يكون مع المخاطب المفرد لم تنسى-> لم تنس

لم [أنيت](\w\w)ى -> "لم \1\2" # لم الجازمة تجزم الفعل الناقص بحذف آخره

# جر العدد بعد حرف جر 

#(على|في|من|إلى|عن) (عشر|ثلاث|أربع|خمس|ست|سبع|ثمان|تسع)ون ->"\1 \2ين" #الكلمة الثانية مجرورة

# multiword expressions

comprises of -> comprises # Did you mean:

# multiple suggestions separated by "\n"

scot free -> scot-free\nscotfree # Did you mean:

ying and yang -> yin and yang # Did you mean:

# frequent mistakes

# silent h

a honest -> an honest # Did you mean:
a honesty -> an honesty # Did you mean:
a honestly -> an honestly # Did you mean:

# or abbreviated form (regular expression):

a (honest|honesty|honestly) -> an # Did you mean:

# a more complicated regular expressions to handle silent h:

a (honest(y|ly)?|hour(ly|glass)?|honou?r(abl[ey]|ed|ing|ifics?|s)|heir(less|loom)?) -> an \1 # Did you mean:

# possessive pronouns
# Your's -> Yours
(your|her|our|their)['’]s -> \1s # Did you mean:

# rare words (potential errors)

# accept foreign words only in multiword expressions

de(?! (facto|jure|luxe)) -> de facto\nde juro\nde luxe # Missing expression?

# rules for character level

[char]

# punctuation

" ([.?!,:;)”—]($| ))" -> \1	# فراغات إضافية قبل النقط.
"([(“—]) " -> \1		# فراغات إضافية قبل النقط.

"^[-—] " -> "– "		# Hyphen instead of en dash.
" [-—]([ ,;])" -> " –\1"	# Hyphen instead of en dash.

TEST: ( item ) -> (item)
TEST: A small - but reliable - example. -> A small – but reliable – example.

# definitions
abc [a-z]+
ABC [A-Z]+
Abc [a-zA-Z]+
punct [?!,:;%‰‱˚“”‘]

{Abc}{punct}{Abc} -> {Abc}{punct} {Abc}	# ينبغي إضافة فراغ?
{abc}[.]{ABC} -> {abc}. {ABC}		# ينبغي إضافة فراغ?
TEST: missing,space -> missing, space
TEST: missing.Space -> missing. Space

(\d+)x(\d+) -> \1×\2 # Multiplication sign.
TEST: 800x600 -> 800×600

# typography
"[.]{3}" -> "…"			# Three dot character.

(^|\b|{punct}|[.]) {2,3}(\b|$) -> "\1 " # Extra space.
TEST: Extra  space -> Extra space
TEST: End... -> End…

# quotation

\"(\w[^\"“”]*[\w.?!,])\" -> “\1”	# Quotion marks.
\B'(\w[^']*[\w.?!,])'\B -> ‘\1’		# Quotion marks.
TEST: "The 'old' boy." -> “The ‘old’ boy.”

# apostrophe

w \w*
(?i){Abc}'{w} -> {Abc}’{w}	# Typographic apostrophe.
TEST: o'clock -> o’clock
TEST: singers' voices -> singers’ voices

# formats

# Thousand separators: 10000 -> 10,000  (common) or 10 000 (ISO standard)

# definitions
d	\d\d\d		# name definition: 3 digits
d2	\d\d		# 2 digits
D	\d{1,3}		# 1, 2 or 3 digits

# ISO thousand separators: space, here: no-break space (U+00A0)
\b{d2}{d}\b 	 <- option("numsep") -> {d2},{d}\n{d2} {d}			# Use thousand separator (common or ISO).
\b{D}{d}{d}\b 	 <- option("numsep") -> {D},{d},{d}\n{D} {d} {d}		# Use thousand separators (common or ISO).
\b{D}{d}{d}{d}\b <- option("numsep") -> {D},{d},{d},{d}\n{D} {d} {d} {d}	# Use thousand separators (common or ISO).
#TEST: 1234567890 -> 1,234,567,890\n1 234 567 890

# word duplication

W [-\w]{3,}

# within clauses

{W}(?: [-–\w“”]+)* \1 <- option("dup") -> {W} # Word duplication?

# within sentences

{W}(?: [-–\w“”]+[;,:]?)* \1 <- option("dup2") -> {W} # Word duplication?
